%YAML 1.1
%TAG !u! tag:unity3d.com,2011:
--- !u!114 &11400000
MonoBehaviour:
  m_ObjectHideFlags: 0
  m_CorrespondingSourceObject: {fileID: 0}
  m_PrefabInstance: {fileID: 0}
  m_PrefabAsset: {fileID: 0}
  m_GameObject: {fileID: 0}
  m_Enabled: 1
  m_EditorHideFlags: 0
  m_Script: {fileID: 11500000, guid: 7ae80f8c86e866c43839873d51286c0d, type: 3}
  m_Name: Coctail_Beer
  m_EditorClassIdentifier: 
  Value: 3
  tabName: Potion Values
  recipe: {fileID: 0}
  roomDurability: -1
  hasRoomDurability: 0
  Prefab: {fileID: 5491673637052450766, guid: 0d546d15a80aba544973da4215363f85, type: 3}
  Storydrink: 0
