%YAML 1.1
%TAG !u! tag:unity3d.com,2011:
--- !u!74 &7400000
AnimationClip:
  m_ObjectHideFlags: 0
  m_CorrespondingSourceObject: {fileID: 0}
  m_PrefabInstance: {fileID: 0}
  m_PrefabAsset: {fileID: 0}
  m_Name: Player_Attack_Melee_StickyWhack_Secondary_Right
  serializedVersion: 6
  m_Legacy: 0
  m_Compressed: 0
  m_UseHighQualityCurve: 1
  m_RotationCurves: []
  m_CompressedRotationCurves: []
  m_EulerCurves: []
  m_PositionCurves: []
  m_ScaleCurves: []
  m_FloatCurves: []
  m_PPtrCurves:
  - curve:
    - time: 0
      value: {fileID: 4025249717475262930, guid: 95ee8161dc013104ba0a35caa657f130, type: 3}
    - time: 0.16666667
      value: {fileID: -6050770794080386663, guid: 95ee8161dc013104ba0a35caa657f130, type: 3}
    - time: 0.38333333
      value: {fileID: 1159197360681561924, guid: 95ee8161dc013104ba0a35caa657f130, type: 3}
    - time: 0.55
      value: {fileID: -852308894413798603, guid: 95ee8161dc013104ba0a35caa657f130, type: 3}
    - time: 0.71666664
      value: {fileID: -1730695496809209735, guid: 95ee8161dc013104ba0a35caa657f130, type: 3}
    - time: 0.8833333
      value: {fileID: -3195874067672170612, guid: 95ee8161dc013104ba0a35caa657f130, type: 3}
    - time: 1.05
      value: {fileID: -6539535841820947093, guid: 95ee8161dc013104ba0a35caa657f130, type: 3}
    - time: 1.1833333
      value: {fileID: -2482918383074440715, guid: 95ee8161dc013104ba0a35caa657f130, type: 3}
    - time: 1.3166667
      value: {fileID: 7921217709217184045, guid: 95ee8161dc013104ba0a35caa657f130, type: 3}
    - time: 1.45
      value: {fileID: -6733256151102052612, guid: 95ee8161dc013104ba0a35caa657f130, type: 3}
    - time: 1.5666667
      value: {fileID: -8621991029002431216, guid: 95ee8161dc013104ba0a35caa657f130, type: 3}
    - time: 1.6833333
      value: {fileID: -5264122907575353537, guid: 95ee8161dc013104ba0a35caa657f130, type: 3}
    - time: 1.7666667
      value: {fileID: 8000872710769428016, guid: 95ee8161dc013104ba0a35caa657f130, type: 3}
    - time: 1.8666667
      value: {fileID: -3737893262629184879, guid: 95ee8161dc013104ba0a35caa657f130, type: 3}
    - time: 1.9833333
      value: {fileID: -3737893262629184879, guid: 95ee8161dc013104ba0a35caa657f130, type: 3}
    attribute: m_Sprite
    path: 
    classID: 212
    script: {fileID: 0}
  m_SampleRate: 60
  m_WrapMode: 0
  m_Bounds:
    m_Center: {x: 0, y: 0, z: 0}
    m_Extent: {x: 0, y: 0, z: 0}
  m_ClipBindingConstant:
    genericBindings:
    - serializedVersion: 2
      path: 0
      attribute: 0
      script: {fileID: 0}
      typeID: 212
      customType: 23
      isPPtrCurve: 1
    pptrCurveMapping:
    - {fileID: 4025249717475262930, guid: 95ee8161dc013104ba0a35caa657f130, type: 3}
    - {fileID: -6050770794080386663, guid: 95ee8161dc013104ba0a35caa657f130, type: 3}
    - {fileID: 1159197360681561924, guid: 95ee8161dc013104ba0a35caa657f130, type: 3}
    - {fileID: -852308894413798603, guid: 95ee8161dc013104ba0a35caa657f130, type: 3}
    - {fileID: -1730695496809209735, guid: 95ee8161dc013104ba0a35caa657f130, type: 3}
    - {fileID: -3195874067672170612, guid: 95ee8161dc013104ba0a35caa657f130, type: 3}
    - {fileID: -6539535841820947093, guid: 95ee8161dc013104ba0a35caa657f130, type: 3}
    - {fileID: -2482918383074440715, guid: 95ee8161dc013104ba0a35caa657f130, type: 3}
    - {fileID: 7921217709217184045, guid: 95ee8161dc013104ba0a35caa657f130, type: 3}
    - {fileID: -6733256151102052612, guid: 95ee8161dc013104ba0a35caa657f130, type: 3}
    - {fileID: -8621991029002431216, guid: 95ee8161dc013104ba0a35caa657f130, type: 3}
    - {fileID: -5264122907575353537, guid: 95ee8161dc013104ba0a35caa657f130, type: 3}
    - {fileID: 8000872710769428016, guid: 95ee8161dc013104ba0a35caa657f130, type: 3}
    - {fileID: -3737893262629184879, guid: 95ee8161dc013104ba0a35caa657f130, type: 3}
    - {fileID: -3737893262629184879, guid: 95ee8161dc013104ba0a35caa657f130, type: 3}
  m_AnimationClipSettings:
    serializedVersion: 2
    m_AdditiveReferencePoseClip: {fileID: 0}
    m_AdditiveReferencePoseTime: 0
    m_StartTime: 0
    m_StopTime: 2
    m_OrientationOffsetY: 0
    m_Level: 0
    m_CycleOffset: 0
    m_HasAdditiveReferencePose: 0
    m_LoopTime: 0
    m_LoopBlend: 0
    m_LoopBlendOrientation: 0
    m_LoopBlendPositionY: 0
    m_LoopBlendPositionXZ: 0
    m_KeepOriginalOrientation: 0
    m_KeepOriginalPositionY: 1
    m_KeepOriginalPositionXZ: 0
    m_HeightFromFeet: 0
    m_Mirror: 0
  m_EditorCurves: []
  m_EulerEditorCurves: []
  m_HasGenericRootTransform: 0
  m_HasMotionFloatCurves: 0
  m_Events: []
