%YAML 1.1
%TAG !u! tag:unity3d.com,2011:
--- !u!114 &11400000
MonoBehaviour:
  m_ObjectHideFlags: 0
  m_CorrespondingSourceObject: {fileID: 0}
  m_PrefabInstance: {fileID: 0}
  m_PrefabAsset: {fileID: 0}
  m_GameObject: {fileID: 0}
  m_Enabled: 1
  m_EditorHideFlags: 0
  m_Script: {fileID: 11500000, guid: 1374981b18709f940aedc7f5557809c1, type: 3}
  m_Name: EnemyWave_F1_R1
  m_EditorClassIdentifier: 
  spawnInterval: 0
  typeOfEnemies:
  - {fileID: 4562752363528853935, guid: d5a86c1e6d85546499d0e9badaa0cab7, type: 3}
  - {fileID: 4562752363528853935, guid: d6c661bb111ba20429c4d7ab2a241f06, type: 3}
  - {fileID: 4562752363528853935, guid: 9213cc6dacbbb0641a26c8a1bf7671b2, type: 3}
  waveName: EnemyWave_F1_R1
