%YAML 1.1
%TAG !u! tag:unity3d.com,2011:
--- !u!74 &7400000
AnimationClip:
  m_ObjectHideFlags: 0
  m_CorrespondingSourceObject: {fileID: 0}
  m_PrefabInstance: {fileID: 0}
  m_PrefabAsset: {fileID: 0}
  m_Name: SSSW_Dying
  serializedVersion: 6
  m_Legacy: 0
  m_Compressed: 0
  m_UseHighQualityCurve: 1
  m_RotationCurves: []
  m_CompressedRotationCurves: []
  m_EulerCurves: []
  m_PositionCurves: []
  m_ScaleCurves: []
  m_FloatCurves:
  - curve:
      serializedVersion: 2
      m_Curve:
      - serializedVersion: 3
        time: 0
        value: 1
        inSlope: Infinity
        outSlope: Infinity
        tangentMode: 103
        weightedMode: 0
        inWeight: 0
        outWeight: 0
      - serializedVersion: 3
        time: 2.4
        value: 0
        inSlope: Infinity
        outSlope: Infinity
        tangentMode: 103
        weightedMode: 0
        inWeight: 0
        outWeight: 0
      m_PreInfinity: 2
      m_PostInfinity: 2
      m_RotationOrder: 4
    attribute: isDying
    path: 
    classID: 114
    script: {fileID: 11500000, guid: 0d0dab824fdbc31439c1132c9a12ba6d, type: 3}
  m_PPtrCurves:
  - curve:
    - time: 0
      value: {fileID: 192077923513069197, guid: 407766effab1b244685209b8565a9278, type: 3}
    - time: 0.15
      value: {fileID: 9211884616757392680, guid: 407766effab1b244685209b8565a9278, type: 3}
    - time: 0.26666668
      value: {fileID: -5318366659236671304, guid: 407766effab1b244685209b8565a9278, type: 3}
    - time: 0.36666667
      value: {fileID: -1584678812408672373, guid: 407766effab1b244685209b8565a9278, type: 3}
    - time: 0.53333336
      value: {fileID: -2654636790769244238, guid: 407766effab1b244685209b8565a9278, type: 3}
    - time: 0.6666667
      value: {fileID: -5750583983585307010, guid: 407766effab1b244685209b8565a9278, type: 3}
    - time: 0.8
      value: {fileID: 5719646134658341979, guid: 407766effab1b244685209b8565a9278, type: 3}
    - time: 0.9166667
      value: {fileID: 452249949409582982, guid: 407766effab1b244685209b8565a9278, type: 3}
    - time: 1.1
      value: {fileID: -1316687750578291289, guid: 407766effab1b244685209b8565a9278, type: 3}
    - time: 1.2833333
      value: {fileID: 5161876518452282763, guid: 407766effab1b244685209b8565a9278, type: 3}
    - time: 1.45
      value: {fileID: -1755816030143500870, guid: 407766effab1b244685209b8565a9278, type: 3}
    - time: 1.6666666
      value: {fileID: 1899492045124639049, guid: 407766effab1b244685209b8565a9278, type: 3}
    - time: 1.8166667
      value: {fileID: -87551611059628223, guid: 407766effab1b244685209b8565a9278, type: 3}
    - time: 1.9666667
      value: {fileID: 3509569638373842039, guid: 407766effab1b244685209b8565a9278, type: 3}
    - time: 2.1666667
      value: {fileID: -7351370961720316436, guid: 407766effab1b244685209b8565a9278, type: 3}
    - time: 2.3833334
      value: {fileID: -7351370961720316436, guid: 407766effab1b244685209b8565a9278, type: 3}
    attribute: m_Sprite
    path: 
    classID: 212
    script: {fileID: 0}
  m_SampleRate: 60
  m_WrapMode: 0
  m_Bounds:
    m_Center: {x: 0, y: 0, z: 0}
    m_Extent: {x: 0, y: 0, z: 0}
  m_ClipBindingConstant:
    genericBindings:
    - serializedVersion: 2
      path: 0
      attribute: 3659463365
      script: {fileID: 11500000, guid: 0d0dab824fdbc31439c1132c9a12ba6d, type: 3}
      typeID: 114
      customType: 0
      isPPtrCurve: 0
    - serializedVersion: 2
      path: 0
      attribute: 0
      script: {fileID: 0}
      typeID: 212
      customType: 23
      isPPtrCurve: 1
    pptrCurveMapping:
    - {fileID: 192077923513069197, guid: 407766effab1b244685209b8565a9278, type: 3}
    - {fileID: 9211884616757392680, guid: 407766effab1b244685209b8565a9278, type: 3}
    - {fileID: -5318366659236671304, guid: 407766effab1b244685209b8565a9278, type: 3}
    - {fileID: -1584678812408672373, guid: 407766effab1b244685209b8565a9278, type: 3}
    - {fileID: -2654636790769244238, guid: 407766effab1b244685209b8565a9278, type: 3}
    - {fileID: -5750583983585307010, guid: 407766effab1b244685209b8565a9278, type: 3}
    - {fileID: 5719646134658341979, guid: 407766effab1b244685209b8565a9278, type: 3}
    - {fileID: 452249949409582982, guid: 407766effab1b244685209b8565a9278, type: 3}
    - {fileID: -1316687750578291289, guid: 407766effab1b244685209b8565a9278, type: 3}
    - {fileID: 5161876518452282763, guid: 407766effab1b244685209b8565a9278, type: 3}
    - {fileID: -1755816030143500870, guid: 407766effab1b244685209b8565a9278, type: 3}
    - {fileID: 1899492045124639049, guid: 407766effab1b244685209b8565a9278, type: 3}
    - {fileID: -87551611059628223, guid: 407766effab1b244685209b8565a9278, type: 3}
    - {fileID: 3509569638373842039, guid: 407766effab1b244685209b8565a9278, type: 3}
    - {fileID: -7351370961720316436, guid: 407766effab1b244685209b8565a9278, type: 3}
    - {fileID: -7351370961720316436, guid: 407766effab1b244685209b8565a9278, type: 3}
  m_AnimationClipSettings:
    serializedVersion: 2
    m_AdditiveReferencePoseClip: {fileID: 0}
    m_AdditiveReferencePoseTime: 0
    m_StartTime: 0
    m_StopTime: 2.4
    m_OrientationOffsetY: 0
    m_Level: 0
    m_CycleOffset: 0
    m_HasAdditiveReferencePose: 0
    m_LoopTime: 1
    m_LoopBlend: 0
    m_LoopBlendOrientation: 0
    m_LoopBlendPositionY: 0
    m_LoopBlendPositionXZ: 0
    m_KeepOriginalOrientation: 0
    m_KeepOriginalPositionY: 1
    m_KeepOriginalPositionXZ: 0
    m_HeightFromFeet: 0
    m_Mirror: 0
  m_EditorCurves:
  - curve:
      serializedVersion: 2
      m_Curve:
      - serializedVersion: 3
        time: 0
        value: 1
        inSlope: Infinity
        outSlope: Infinity
        tangentMode: 103
        weightedMode: 0
        inWeight: 0
        outWeight: 0
      - serializedVersion: 3
        time: 2.4
        value: 0
        inSlope: Infinity
        outSlope: Infinity
        tangentMode: 103
        weightedMode: 0
        inWeight: 0
        outWeight: 0
      m_PreInfinity: 2
      m_PostInfinity: 2
      m_RotationOrder: 4
    attribute: isDying
    path: 
    classID: 114
    script: {fileID: 11500000, guid: 0d0dab824fdbc31439c1132c9a12ba6d, type: 3}
  m_EulerEditorCurves: []
  m_HasGenericRootTransform: 0
  m_HasMotionFloatCurves: 0
  m_Events: []
