%YAML 1.1
%TAG !u! tag:unity3d.com,2011:
--- !u!1001 &6637555414880810122
PrefabInstance:
  m_ObjectHideFlags: 0
  serializedVersion: 2
  m_Modification:
    m_TransformParent: {fileID: 0}
    m_Modifications:
    - target: {fileID: 5504408897073596053, guid: 0dd8769c9445bd148b6138be0113e2ba, type: 3}
      propertyPath: m_Controller
      value: 
      objectReference: {fileID: 0}
    - target: {fileID: 5982189013922275259, guid: 0dd8769c9445bd148b6138be0113e2ba, type: 3}
      propertyPath: deadEvent.m_PersistentCalls.m_Calls.Array.data[2].m_Mode
      value: 1
      objectReference: {fileID: 0}
    - target: {fileID: 5982189013922275259, guid: 0dd8769c9445bd148b6138be0113e2ba, type: 3}
      propertyPath: deadEvent.m_PersistentCalls.m_Calls.Array.data[2].m_Target
      value: 
      objectReference: {fileID: 2855548332457107286}
    - target: {fileID: 5982189013922275259, guid: 0dd8769c9445bd148b6138be0113e2ba, type: 3}
      propertyPath: deadEvent.m_PersistentCalls.m_Calls.Array.data[2].m_MethodName
      value: SpawnCoins
      objectReference: {fileID: 0}
    - target: {fileID: 5982189013922275259, guid: 0dd8769c9445bd148b6138be0113e2ba, type: 3}
      propertyPath: deadEvent.m_PersistentCalls.m_Calls.Array.data[2].m_TargetAssemblyTypeName
      value: SpawnCoin, Assembly-CSharp
      objectReference: {fileID: 0}
    - target: {fileID: 7156064098865048869, guid: 0dd8769c9445bd148b6138be0113e2ba, type: 3}
      propertyPath: m_Name
      value: PFB_Dalek
      objectReference: {fileID: 0}
    - target: {fileID: 7156064098865048871, guid: 0dd8769c9445bd148b6138be0113e2ba, type: 3}
      propertyPath: m_Sprite
      value: 
      objectReference: {fileID: 21300000, guid: eed6fde3f91f6e24f876c8b3603783e9, type: 3}
    - target: {fileID: 7156064098865048872, guid: 0dd8769c9445bd148b6138be0113e2ba, type: 3}
      propertyPath: m_RootOrder
      value: 0
      objectReference: {fileID: 0}
    - target: {fileID: 7156064098865048872, guid: 0dd8769c9445bd148b6138be0113e2ba, type: 3}
      propertyPath: m_LocalPosition.x
      value: 0
      objectReference: {fileID: 0}
    - target: {fileID: 7156064098865048872, guid: 0dd8769c9445bd148b6138be0113e2ba, type: 3}
      propertyPath: m_LocalPosition.y
      value: 0
      objectReference: {fileID: 0}
    - target: {fileID: 7156064098865048872, guid: 0dd8769c9445bd148b6138be0113e2ba, type: 3}
      propertyPath: m_LocalPosition.z
      value: 0
      objectReference: {fileID: 0}
    - target: {fileID: 7156064098865048872, guid: 0dd8769c9445bd148b6138be0113e2ba, type: 3}
      propertyPath: m_LocalRotation.w
      value: 0.9914449
      objectReference: {fileID: 0}
    - target: {fileID: 7156064098865048872, guid: 0dd8769c9445bd148b6138be0113e2ba, type: 3}
      propertyPath: m_LocalRotation.x
      value: -0.13052624
      objectReference: {fileID: 0}
    - target: {fileID: 7156064098865048872, guid: 0dd8769c9445bd148b6138be0113e2ba, type: 3}
      propertyPath: m_LocalRotation.y
      value: 0
      objectReference: {fileID: 0}
    - target: {fileID: 7156064098865048872, guid: 0dd8769c9445bd148b6138be0113e2ba, type: 3}
      propertyPath: m_LocalRotation.z
      value: 0
      objectReference: {fileID: 0}
    - target: {fileID: 7156064098865048872, guid: 0dd8769c9445bd148b6138be0113e2ba, type: 3}
      propertyPath: m_LocalEulerAnglesHint.x
      value: -15
      objectReference: {fileID: 0}
    - target: {fileID: 7156064098865048872, guid: 0dd8769c9445bd148b6138be0113e2ba, type: 3}
      propertyPath: m_LocalEulerAnglesHint.y
      value: 0
      objectReference: {fileID: 0}
    - target: {fileID: 7156064098865048872, guid: 0dd8769c9445bd148b6138be0113e2ba, type: 3}
      propertyPath: m_LocalEulerAnglesHint.z
      value: 0
      objectReference: {fileID: 0}
    m_RemovedComponents: []
  m_SourcePrefab: {fileID: 100100000, guid: 0dd8769c9445bd148b6138be0113e2ba, type: 3}
--- !u!114 &2855548332457107286 stripped
MonoBehaviour:
  m_CorrespondingSourceObject: {fileID: 8916466935464487900, guid: 0dd8769c9445bd148b6138be0113e2ba, type: 3}
  m_PrefabInstance: {fileID: 6637555414880810122}
  m_PrefabAsset: {fileID: 0}
  m_GameObject: {fileID: 0}
  m_Enabled: 1
  m_EditorHideFlags: 0
  m_Script: {fileID: 11500000, guid: d5616521231905546b61445cbbc7d5bb, type: 3}
  m_Name: 
  m_EditorClassIdentifier: 
