%YAML 1.1
%TAG !u! tag:unity3d.com,2011:
--- !u!114 &3793836702170043059
MonoBehaviour:
  m_ObjectHideFlags: 0
  m_CorrespondingSourceObject: {fileID: 0}
  m_PrefabInstance: {fileID: 0}
  m_PrefabAsset: {fileID: 0}
  m_GameObject: {fileID: 8941126888835875451}
  m_Enabled: 1
  m_EditorHideFlags: 0
  m_Script: {fileID: 11500000, guid: a7d39de5af3165e4da12a8602923a039, type: 3}
  m_Name: 
  m_EditorClassIdentifier: 
  FoundSpecialDrink:
    m_PersistentCalls:
      m_Calls: []
  thisDrink: 1
  _item: {fileID: 11400000, guid: bcc08b54fe179534dbc0c1ff0e98a9fe, type: 2}
--- !u!1001 &4941031667448777175
PrefabInstance:
  m_ObjectHideFlags: 0
  serializedVersion: 2
  m_Modification:
    m_TransformParent: {fileID: 0}
    m_Modifications:
    - target: {fileID: 4073314101105527696, guid: 4ee2d586f0a356f4f8b322491dfe13c7, type: 3}
      propertyPath: item
      value: 
      objectReference: {fileID: 11400000, guid: bcc08b54fe179534dbc0c1ff0e98a9fe, type: 2}
    - target: {fileID: 4073314101105527696, guid: 4ee2d586f0a356f4f8b322491dfe13c7, type: 3}
      propertyPath: _item
      value: 
      objectReference: {fileID: 11400000, guid: bcc08b54fe179534dbc0c1ff0e98a9fe, type: 2}
    - target: {fileID: 4073314101105527698, guid: 4ee2d586f0a356f4f8b322491dfe13c7, type: 3}
      propertyPath: m_FlipX
      value: 0
      objectReference: {fileID: 0}
    - target: {fileID: 4073314101105527698, guid: 4ee2d586f0a356f4f8b322491dfe13c7, type: 3}
      propertyPath: m_FlipY
      value: 0
      objectReference: {fileID: 0}
    - target: {fileID: 4073314101105527698, guid: 4ee2d586f0a356f4f8b322491dfe13c7, type: 3}
      propertyPath: m_Sprite
      value: 
      objectReference: {fileID: 21300000, guid: 1c38217f1fc390f49924c3c4cee984da, type: 3}
    - target: {fileID: 4073314101105527698, guid: 4ee2d586f0a356f4f8b322491dfe13c7, type: 3}
      propertyPath: m_Color.a
      value: 1
      objectReference: {fileID: 0}
    - target: {fileID: 4073314101105527698, guid: 4ee2d586f0a356f4f8b322491dfe13c7, type: 3}
      propertyPath: m_Color.b
      value: 0.3058824
      objectReference: {fileID: 0}
    - target: {fileID: 4073314101105527698, guid: 4ee2d586f0a356f4f8b322491dfe13c7, type: 3}
      propertyPath: m_Color.g
      value: 0.7576747
      objectReference: {fileID: 0}
    - target: {fileID: 4073314101105527698, guid: 4ee2d586f0a356f4f8b322491dfe13c7, type: 3}
      propertyPath: m_Color.r
      value: 0.9647059
      objectReference: {fileID: 0}
    - target: {fileID: 4073314101105527698, guid: 4ee2d586f0a356f4f8b322491dfe13c7, type: 3}
      propertyPath: m_DrawMode
      value: 0
      objectReference: {fileID: 0}
    - target: {fileID: 4073314101105527698, guid: 4ee2d586f0a356f4f8b322491dfe13c7, type: 3}
      propertyPath: m_SortingLayer
      value: 5
      objectReference: {fileID: 0}
    - target: {fileID: 4073314101105527698, guid: 4ee2d586f0a356f4f8b322491dfe13c7, type: 3}
      propertyPath: m_SortingLayerID
      value: 1053289163
      objectReference: {fileID: 0}
    - target: {fileID: 4073314101105527698, guid: 4ee2d586f0a356f4f8b322491dfe13c7, type: 3}
      propertyPath: m_Materials.Array.data[0]
      value: 
      objectReference: {fileID: 10754, guid: 0000000000000000f000000000000000, type: 0}
    - target: {fileID: 4073314101105527699, guid: 4ee2d586f0a356f4f8b322491dfe13c7, type: 3}
      propertyPath: m_Radius
      value: 2
      objectReference: {fileID: 0}
    - target: {fileID: 4073314101105527724, guid: 4ee2d586f0a356f4f8b322491dfe13c7, type: 3}
      propertyPath: m_Name
      value: PBF_ITEM_ExplosiveMode_StoryCollectable
      objectReference: {fileID: 0}
    - target: {fileID: 4073314101105527724, guid: 4ee2d586f0a356f4f8b322491dfe13c7, type: 3}
      propertyPath: m_Layer
      value: 17
      objectReference: {fileID: 0}
    - target: {fileID: 4073314101105527725, guid: 4ee2d586f0a356f4f8b322491dfe13c7, type: 3}
      propertyPath: m_RootOrder
      value: 0
      objectReference: {fileID: 0}
    - target: {fileID: 4073314101105527725, guid: 4ee2d586f0a356f4f8b322491dfe13c7, type: 3}
      propertyPath: m_LocalScale.x
      value: 0.5
      objectReference: {fileID: 0}
    - target: {fileID: 4073314101105527725, guid: 4ee2d586f0a356f4f8b322491dfe13c7, type: 3}
      propertyPath: m_LocalScale.y
      value: 0.5
      objectReference: {fileID: 0}
    - target: {fileID: 4073314101105527725, guid: 4ee2d586f0a356f4f8b322491dfe13c7, type: 3}
      propertyPath: m_LocalPosition.x
      value: 5.8
      objectReference: {fileID: 0}
    - target: {fileID: 4073314101105527725, guid: 4ee2d586f0a356f4f8b322491dfe13c7, type: 3}
      propertyPath: m_LocalPosition.y
      value: -44.26
      objectReference: {fileID: 0}
    - target: {fileID: 4073314101105527725, guid: 4ee2d586f0a356f4f8b322491dfe13c7, type: 3}
      propertyPath: m_LocalPosition.z
      value: 0
      objectReference: {fileID: 0}
    - target: {fileID: 4073314101105527725, guid: 4ee2d586f0a356f4f8b322491dfe13c7, type: 3}
      propertyPath: m_LocalRotation.w
      value: 1
      objectReference: {fileID: 0}
    - target: {fileID: 4073314101105527725, guid: 4ee2d586f0a356f4f8b322491dfe13c7, type: 3}
      propertyPath: m_LocalRotation.x
      value: 0
      objectReference: {fileID: 0}
    - target: {fileID: 4073314101105527725, guid: 4ee2d586f0a356f4f8b322491dfe13c7, type: 3}
      propertyPath: m_LocalRotation.y
      value: 0
      objectReference: {fileID: 0}
    - target: {fileID: 4073314101105527725, guid: 4ee2d586f0a356f4f8b322491dfe13c7, type: 3}
      propertyPath: m_LocalRotation.z
      value: 0
      objectReference: {fileID: 0}
    - target: {fileID: 4073314101105527725, guid: 4ee2d586f0a356f4f8b322491dfe13c7, type: 3}
      propertyPath: m_LocalEulerAnglesHint.x
      value: 0
      objectReference: {fileID: 0}
    - target: {fileID: 4073314101105527725, guid: 4ee2d586f0a356f4f8b322491dfe13c7, type: 3}
      propertyPath: m_LocalEulerAnglesHint.y
      value: 0
      objectReference: {fileID: 0}
    - target: {fileID: 4073314101105527725, guid: 4ee2d586f0a356f4f8b322491dfe13c7, type: 3}
      propertyPath: m_LocalEulerAnglesHint.z
      value: 0
      objectReference: {fileID: 0}
    m_RemovedComponents:
    - {fileID: 4073314101105527696, guid: 4ee2d586f0a356f4f8b322491dfe13c7, type: 3}
  m_SourcePrefab: {fileID: 100100000, guid: 4ee2d586f0a356f4f8b322491dfe13c7, type: 3}
--- !u!1 &8941126888835875451 stripped
GameObject:
  m_CorrespondingSourceObject: {fileID: 4073314101105527724, guid: 4ee2d586f0a356f4f8b322491dfe13c7, type: 3}
  m_PrefabInstance: {fileID: 4941031667448777175}
  m_PrefabAsset: {fileID: 0}
