%YAML 1.1
%TAG !u! tag:unity3d.com,2011:
--- !u!114 &-4258165774511987124
MonoBehaviour:
  m_ObjectHideFlags: 0
  m_CorrespondingSourceObject: {fileID: 0}
  m_PrefabInstance: {fileID: 0}
  m_PrefabAsset: {fileID: 0}
  m_GameObject: {fileID: 1838249654671618223}
  m_Enabled: 1
  m_EditorHideFlags: 0
  m_Script: {fileID: 11500000, guid: a7d39de5af3165e4da12a8602923a039, type: 3}
  m_Name: 
  m_EditorClassIdentifier: 
  FoundSpecialDrink:
    m_PersistentCalls:
      m_Calls: []
  thisDrink: 0
  _item: {fileID: 11400000, guid: bf2c0288b27827047b98053f78a85671, type: 2}
--- !u!1001 &2379474853684296451
PrefabInstance:
  m_ObjectHideFlags: 0
  serializedVersion: 2
  m_Modification:
    m_TransformParent: {fileID: 0}
    m_Modifications:
    - target: {fileID: 4073314101105527696, guid: 4ee2d586f0a356f4f8b322491dfe13c7, type: 3}
      propertyPath: _item
      value: 
      objectReference: {fileID: 11400000, guid: eda6053e2e09c2240861747087d83660, type: 2}
    - target: {fileID: 4073314101105527698, guid: 4ee2d586f0a356f4f8b322491dfe13c7, type: 3}
      propertyPath: m_Sprite
      value: 
      objectReference: {fileID: 21300000, guid: c4d8172421209be4b9a762925255e402, type: 3}
    - target: {fileID: 4073314101105527699, guid: 4ee2d586f0a356f4f8b322491dfe13c7, type: 3}
      propertyPath: m_Radius
      value: 0.5
      objectReference: {fileID: 0}
    - target: {fileID: 4073314101105527724, guid: 4ee2d586f0a356f4f8b322491dfe13c7, type: 3}
      propertyPath: m_Name
      value: PFB_ITEM_Tentacle__StoryCollectable
      objectReference: {fileID: 0}
    - target: {fileID: 4073314101105527725, guid: 4ee2d586f0a356f4f8b322491dfe13c7, type: 3}
      propertyPath: m_RootOrder
      value: 0
      objectReference: {fileID: 0}
    - target: {fileID: 4073314101105527725, guid: 4ee2d586f0a356f4f8b322491dfe13c7, type: 3}
      propertyPath: m_LocalScale.x
      value: 2
      objectReference: {fileID: 0}
    - target: {fileID: 4073314101105527725, guid: 4ee2d586f0a356f4f8b322491dfe13c7, type: 3}
      propertyPath: m_LocalScale.y
      value: 2
      objectReference: {fileID: 0}
    - target: {fileID: 4073314101105527725, guid: 4ee2d586f0a356f4f8b322491dfe13c7, type: 3}
      propertyPath: m_LocalPosition.x
      value: 8.736627
      objectReference: {fileID: 0}
    - target: {fileID: 4073314101105527725, guid: 4ee2d586f0a356f4f8b322491dfe13c7, type: 3}
      propertyPath: m_LocalPosition.y
      value: -43.552105
      objectReference: {fileID: 0}
    - target: {fileID: 4073314101105527725, guid: 4ee2d586f0a356f4f8b322491dfe13c7, type: 3}
      propertyPath: m_LocalPosition.z
      value: -0.4213773
      objectReference: {fileID: 0}
    - target: {fileID: 4073314101105527725, guid: 4ee2d586f0a356f4f8b322491dfe13c7, type: 3}
      propertyPath: m_LocalRotation.w
      value: 1
      objectReference: {fileID: 0}
    - target: {fileID: 4073314101105527725, guid: 4ee2d586f0a356f4f8b322491dfe13c7, type: 3}
      propertyPath: m_LocalRotation.x
      value: 0
      objectReference: {fileID: 0}
    - target: {fileID: 4073314101105527725, guid: 4ee2d586f0a356f4f8b322491dfe13c7, type: 3}
      propertyPath: m_LocalRotation.y
      value: 0
      objectReference: {fileID: 0}
    - target: {fileID: 4073314101105527725, guid: 4ee2d586f0a356f4f8b322491dfe13c7, type: 3}
      propertyPath: m_LocalRotation.z
      value: 0
      objectReference: {fileID: 0}
    - target: {fileID: 4073314101105527725, guid: 4ee2d586f0a356f4f8b322491dfe13c7, type: 3}
      propertyPath: m_LocalEulerAnglesHint.x
      value: 0
      objectReference: {fileID: 0}
    - target: {fileID: 4073314101105527725, guid: 4ee2d586f0a356f4f8b322491dfe13c7, type: 3}
      propertyPath: m_LocalEulerAnglesHint.y
      value: 0
      objectReference: {fileID: 0}
    - target: {fileID: 4073314101105527725, guid: 4ee2d586f0a356f4f8b322491dfe13c7, type: 3}
      propertyPath: m_LocalEulerAnglesHint.z
      value: 0
      objectReference: {fileID: 0}
    m_RemovedComponents:
    - {fileID: 4073314101105527696, guid: 4ee2d586f0a356f4f8b322491dfe13c7, type: 3}
  m_SourcePrefab: {fileID: 100100000, guid: 4ee2d586f0a356f4f8b322491dfe13c7, type: 3}
--- !u!1 &1838249654671618223 stripped
GameObject:
  m_CorrespondingSourceObject: {fileID: 4073314101105527724, guid: 4ee2d586f0a356f4f8b322491dfe13c7, type: 3}
  m_PrefabInstance: {fileID: 2379474853684296451}
  m_PrefabAsset: {fileID: 0}
