%YAML 1.1
%TAG !u! tag:unity3d.com,2011:
--- !u!74 &7400000
AnimationClip:
  m_ObjectHideFlags: 0
  m_CorrespondingSourceObject: {fileID: 0}
  m_PrefabInstance: {fileID: 0}
  m_PrefabAsset: {fileID: 0}
  m_Name: Slime_Green_Death
  serializedVersion: 6
  m_Legacy: 0
  m_Compressed: 0
  m_UseHighQualityCurve: 1
  m_RotationCurves: []
  m_CompressedRotationCurves: []
  m_EulerCurves: []
  m_PositionCurves: []
  m_ScaleCurves: []
  m_FloatCurves:
  - curve:
      serializedVersion: 2
      m_Curve:
      - serializedVersion: 3
        time: 0
        value: 1
        inSlope: Infinity
        outSlope: Infinity
        tangentMode: 103
        weightedMode: 0
        inWeight: 0
        outWeight: 0
      - serializedVersion: 3
        time: 1.6
        value: 0
        inSlope: Infinity
        outSlope: Infinity
        tangentMode: 103
        weightedMode: 0
        inWeight: 0
        outWeight: 0
      m_PreInfinity: 2
      m_PostInfinity: 2
      m_RotationOrder: 4
    attribute: isDying
    path: 
    classID: 114
    script: {fileID: 11500000, guid: 0d0dab824fdbc31439c1132c9a12ba6d, type: 3}
  m_PPtrCurves:
  - curve:
    - time: 0
      value: {fileID: 4405575798710805009, guid: 99cf53c7b4de4fe438a78d5e78f8c217, type: 3}
    - time: 0.15
      value: {fileID: -6385628944177017160, guid: 99cf53c7b4de4fe438a78d5e78f8c217, type: 3}
    - time: 0.3
      value: {fileID: 3259903490852869688, guid: 99cf53c7b4de4fe438a78d5e78f8c217, type: 3}
    - time: 0.45
      value: {fileID: 6341936437079230298, guid: 99cf53c7b4de4fe438a78d5e78f8c217, type: 3}
    - time: 0.6
      value: {fileID: -365249901098585191, guid: 99cf53c7b4de4fe438a78d5e78f8c217, type: 3}
    - time: 0.75
      value: {fileID: 7556791928658285491, guid: 99cf53c7b4de4fe438a78d5e78f8c217, type: 3}
    - time: 0.9
      value: {fileID: -542177654498621932, guid: 99cf53c7b4de4fe438a78d5e78f8c217, type: 3}
    - time: 1.05
      value: {fileID: 2415261248016871226, guid: 99cf53c7b4de4fe438a78d5e78f8c217, type: 3}
    - time: 1.2
      value: {fileID: 1653003640118215335, guid: 99cf53c7b4de4fe438a78d5e78f8c217, type: 3}
    - time: 1.35
      value: {fileID: -4843228209222896333, guid: 99cf53c7b4de4fe438a78d5e78f8c217, type: 3}
    - time: 1.5
      value: {fileID: -5018016046341512031, guid: 99cf53c7b4de4fe438a78d5e78f8c217, type: 3}
    - time: 1.5833334
      value: {fileID: -5018016046341512031, guid: 99cf53c7b4de4fe438a78d5e78f8c217, type: 3}
    attribute: m_Sprite
    path: 
    classID: 212
    script: {fileID: 0}
  m_SampleRate: 60
  m_WrapMode: 0
  m_Bounds:
    m_Center: {x: 0, y: 0, z: 0}
    m_Extent: {x: 0, y: 0, z: 0}
  m_ClipBindingConstant:
    genericBindings:
    - serializedVersion: 2
      path: 0
      attribute: 3659463365
      script: {fileID: 11500000, guid: 0d0dab824fdbc31439c1132c9a12ba6d, type: 3}
      typeID: 114
      customType: 0
      isPPtrCurve: 0
    - serializedVersion: 2
      path: 0
      attribute: 0
      script: {fileID: 0}
      typeID: 212
      customType: 23
      isPPtrCurve: 1
    pptrCurveMapping:
    - {fileID: 4405575798710805009, guid: 99cf53c7b4de4fe438a78d5e78f8c217, type: 3}
    - {fileID: -6385628944177017160, guid: 99cf53c7b4de4fe438a78d5e78f8c217, type: 3}
    - {fileID: 3259903490852869688, guid: 99cf53c7b4de4fe438a78d5e78f8c217, type: 3}
    - {fileID: 6341936437079230298, guid: 99cf53c7b4de4fe438a78d5e78f8c217, type: 3}
    - {fileID: -365249901098585191, guid: 99cf53c7b4de4fe438a78d5e78f8c217, type: 3}
    - {fileID: 7556791928658285491, guid: 99cf53c7b4de4fe438a78d5e78f8c217, type: 3}
    - {fileID: -542177654498621932, guid: 99cf53c7b4de4fe438a78d5e78f8c217, type: 3}
    - {fileID: 2415261248016871226, guid: 99cf53c7b4de4fe438a78d5e78f8c217, type: 3}
    - {fileID: 1653003640118215335, guid: 99cf53c7b4de4fe438a78d5e78f8c217, type: 3}
    - {fileID: -4843228209222896333, guid: 99cf53c7b4de4fe438a78d5e78f8c217, type: 3}
    - {fileID: -5018016046341512031, guid: 99cf53c7b4de4fe438a78d5e78f8c217, type: 3}
    - {fileID: -5018016046341512031, guid: 99cf53c7b4de4fe438a78d5e78f8c217, type: 3}
  m_AnimationClipSettings:
    serializedVersion: 2
    m_AdditiveReferencePoseClip: {fileID: 0}
    m_AdditiveReferencePoseTime: 0
    m_StartTime: 0
    m_StopTime: 1.6
    m_OrientationOffsetY: 0
    m_Level: 0
    m_CycleOffset: 0
    m_HasAdditiveReferencePose: 0
    m_LoopTime: 1
    m_LoopBlend: 0
    m_LoopBlendOrientation: 0
    m_LoopBlendPositionY: 0
    m_LoopBlendPositionXZ: 0
    m_KeepOriginalOrientation: 0
    m_KeepOriginalPositionY: 1
    m_KeepOriginalPositionXZ: 0
    m_HeightFromFeet: 0
    m_Mirror: 0
  m_EditorCurves:
  - curve:
      serializedVersion: 2
      m_Curve:
      - serializedVersion: 3
        time: 0
        value: 1
        inSlope: Infinity
        outSlope: Infinity
        tangentMode: 103
        weightedMode: 0
        inWeight: 0
        outWeight: 0
      - serializedVersion: 3
        time: 1.6
        value: 0
        inSlope: Infinity
        outSlope: Infinity
        tangentMode: 103
        weightedMode: 0
        inWeight: 0
        outWeight: 0
      m_PreInfinity: 2
      m_PostInfinity: 2
      m_RotationOrder: 4
    attribute: isDying
    path: 
    classID: 114
    script: {fileID: 11500000, guid: 0d0dab824fdbc31439c1132c9a12ba6d, type: 3}
  m_EulerEditorCurves: []
  m_HasGenericRootTransform: 0
  m_HasMotionFloatCurves: 0
  m_Events: []
