%YAML 1.1
%TAG !u! tag:unity3d.com,2011:
--- !u!1 &2896435447080038421
GameObject:
  m_ObjectHideFlags: 0
  m_CorrespondingSourceObject: {fileID: 0}
  m_PrefabInstance: {fileID: 0}
  m_PrefabAsset: {fileID: 0}
  serializedVersion: 6
  m_Component:
  - component: {fileID: 2896435447080038446}
  - component: {fileID: 2896435447080038417}
  - component: {fileID: 2896435447080038419}
  m_Layer: 0
  m_Name: PFBGameManager
  m_TagString: Untagged
  m_Icon: {fileID: 0}
  m_NavMeshLayer: 0
  m_StaticEditorFlags: 0
  m_IsActive: 1
--- !u!4 &2896435447080038446
Transform:
  m_ObjectHideFlags: 0
  m_CorrespondingSourceObject: {fileID: 0}
  m_PrefabInstance: {fileID: 0}
  m_PrefabAsset: {fileID: 0}
  m_GameObject: {fileID: 2896435447080038421}
  m_LocalRotation: {x: 0, y: 0, z: 0, w: 1}
  m_LocalPosition: {x: 180.48982, y: -9.150771, z: -1366.6283}
  m_LocalScale: {x: 1, y: 1, z: 1}
  m_Children: []
  m_Father: {fileID: 0}
  m_RootOrder: 0
  m_LocalEulerAnglesHint: {x: 0, y: 0, z: 0}
--- !u!114 &2896435447080038417
MonoBehaviour:
  m_ObjectHideFlags: 0
  m_CorrespondingSourceObject: {fileID: 0}
  m_PrefabInstance: {fileID: 0}
  m_PrefabAsset: {fileID: 0}
  m_GameObject: {fileID: 2896435447080038421}
  m_Enabled: 1
  m_EditorHideFlags: 0
  m_Script: {fileID: 11500000, guid: 438e59c3e5f0afb4aafa06e8925fef9c, type: 3}
  m_Name: 
  m_EditorClassIdentifier: 
  _rooms: []
  activeRoom: {fileID: 0}
  camera: {fileID: 5875934063169807289, guid: 72f9738a65b00fc4499f92aeaef5a1be, type: 3}
  Enemies_GameObjects: []
  fourDrinks: {fileID: 0}
  pfbUICanvas: {fileID: 4230479330326625706, guid: 080be71f65bd7754da546b3ae3686e32, type: 3}
  player: {fileID: 1778967526269222569, guid: 1b45bdc200a0ba5409f460bd8d6ceafd, type: 3}
  Respawnpoint: {x: 0, y: 0, z: 0}
  staringoom: {fileID: 0}
  uiCanvas: {fileID: 0}
--- !u!114 &2896435447080038419
MonoBehaviour:
  m_ObjectHideFlags: 0
  m_CorrespondingSourceObject: {fileID: 0}
  m_PrefabInstance: {fileID: 0}
  m_PrefabAsset: {fileID: 0}
  m_GameObject: {fileID: 2896435447080038421}
  m_Enabled: 1
  m_EditorHideFlags: 0
  m_Script: {fileID: 11500000, guid: 8803d9eb744c53442a4556024fb6ab6c, type: 3}
  m_Name: 
  m_EditorClassIdentifier: 
  FoundADrink:
    m_PersistentCalls:
      m_Calls: []
  FoundAllDrinks:
    m_PersistentCalls:
      m_Calls: []
